%YAML 1.1
%TAG !u! tag:unity3d.com,2011:
--- !u!114 &11400000
MonoBehaviour:
  m_ObjectHideFlags: 0
  m_CorrespondingSourceObject: {fileID: 0}
  m_PrefabInstance: {fileID: 0}
  m_PrefabAsset: {fileID: 0}
  m_GameObject: {fileID: 0}
  m_Enabled: 1
  m_EditorHideFlags: 0
  m_Script: {fileID: 11500000, guid: 98be56b9bf71d574fbf7980b1cf28db7, type: 3}
  m_Name: "\u30C9\u30C3\u30C8\u304D\u306E\u3053"
  m_EditorClassIdentifier: 
  _id: 0
  _name: "\u30C9\u30C3\u30C8\u304D\u306E\u3053"
  _desc: 
  _icon: {fileID: 21300000, guid: fbb38f4ffbd701643b65dbde23717283, type: 3}
  _icon_highlighted: {fileID: 21300000, guid: 4cbff25d2cef14244bf18a271c79bbd7, type: 3}
