%YAML 1.1
%TAG !u! tag:unity3d.com,2011:
--- !u!114 &11400000
MonoBehaviour:
  m_ObjectHideFlags: 0
  m_CorrespondingSourceObject: {fileID: 0}
  m_PrefabInstance: {fileID: 0}
  m_PrefabAsset: {fileID: 0}
  m_GameObject: {fileID: 0}
  m_Enabled: 1
  m_EditorHideFlags: 0
  m_Script: {fileID: 11500000, guid: 64be4b717f8ed0344b3183491a970c4b, type: 3}
  m_Name: "\u308F\u305F\u8C46\u85AC\u8349"
  m_EditorClassIdentifier: 
  item: {fileID: 11400000, guid: e46a8322579a3c64c89a0919c72efe52, type: 2}
  firstStageSprite: {fileID: 21300000, guid: 5f4601c4c2aa87c4d9a11c273b63f5c8, type: 3}
  secondStageSprite: {fileID: 21300000, guid: 788978b6949f4e748b2165e884e26aa1, type: 3}
  thirdStageSprite: {fileID: 21300000, guid: fe3c7de7693d92341aae56696e5abe5d, type: 3}
  maxGrothStage: 3
  timeSpanStillToFirst: 10
  timeSpanFirstToSecond: 10
  timeSpanSecondToThird: 10
