%YAML 1.1
%TAG !u! tag:unity3d.com,2011:
--- !u!114 &11400000
MonoBehaviour:
  m_ObjectHideFlags: 0
  m_CorrespondingSourceObject: {fileID: 0}
  m_PrefabInstance: {fileID: 0}
  m_PrefabAsset: {fileID: 0}
  m_GameObject: {fileID: 0}
  m_Enabled: 1
  m_EditorHideFlags: 0
  m_Script: {fileID: 11500000, guid: 64be4b717f8ed0344b3183491a970c4b, type: 3}
  m_Name: "\u30B9\u30BF\u30FC\u5B9F\u85AC\u8349"
  m_EditorClassIdentifier: 
  item: {fileID: 11400000, guid: 8960ce08ae785c044902471d9f20a706, type: 2}
  firstStageSprite: {fileID: 21300000, guid: 63fc13416def50d4b8b29a20ea2d6f13, type: 3}
  secondStageSprite: {fileID: 21300000, guid: 6697f3d4000292b498b8554a4ca1fe2a, type: 3}
  thirdStageSprite: {fileID: 21300000, guid: 68292e4437b84e5469610f3d01add44e, type: 3}
  maxGrothStage: 3
  timeSpanStillToFirst: 10
  timeSpanFirstToSecond: 10
  timeSpanSecondToThird: 10
