%YAML 1.1
%TAG !u! tag:unity3d.com,2011:
--- !u!114 &11400000
MonoBehaviour:
  m_ObjectHideFlags: 0
  m_CorrespondingSourceObject: {fileID: 0}
  m_PrefabInstance: {fileID: 0}
  m_PrefabAsset: {fileID: 0}
  m_GameObject: {fileID: 0}
  m_Enabled: 1
  m_EditorHideFlags: 0
  m_Script: {fileID: 11500000, guid: bcf7b01782b07e347bf5d155129df11f, type: 3}
  m_Name: "\u30CD\u30B3_\u30B2\u30FC\u30DF\u30F3\u30B0"
  m_EditorClassIdentifier: 
  _name: "\u732B"
  _diseaseSprite: {fileID: 21300000, guid: 8484b0fd36da66042ab4bb3abe369d10, type: 3}
  _goodSprite: {fileID: 21300000, guid: 40d1798c90a350149a67cb08e2e227a4, type: 3}
  _badSprite: {fileID: 21300000, guid: 8484b0fd36da66042ab4bb3abe369d10, type: 3}
  diseaseName: "\u30B2\u30FC\u30DF\u30F3\u30B0\u30AB\u30E9\u30FC\u75C5"
  medicine: {fileID: 11400000, guid: 5cd3b73d135ea5c42b69f115a0eaaba9, type: 2}
  enterGreetingScenarios:
  - right: 0
    line: "\u85AC\u5C4B\u3055\u3093\uFF01\uFF01"
  - right: 0
    line: "\u3053\u308C\u6CBB\u3057\u3066\u304F\u3060\u3055\u3044\u30CB\u30E3\u30A1\u301C\uFF01"
  - right: 1
    line: "\u3046\u308F\uFF01\u307E\u3076\u3057\u3044\u3063\uFF01\uFF1F"
  questions:
  - "\u4F55\u304C\u3042\u3063\u305F\u3093\u3067\u3059\u304B\uFF01\uFF1F"
  - "\u808C\u306B\u75DB\u307F\u3092\u611F\u3058\u307E\u3059\u304B?"
  - "\u4ED6\u306B\u4F55\u304B\u9055\u548C\u611F\u306F\uFF1F"
  answerScenarios:
  - scenarioLines:
    - right: 1
      line: "\u4F55\u304C\u3042\u3063\u305F\u3093\u3067\u3059\u304B\uFF01\uFF1F"
    - right: 0
      line: "\u8679\u8272\u306B\u5149\u308B\u7BB1\u3092\u89E6\u3063\u3066\u305F\u3089"
    - right: 0
      line: "\u3053\u3046\u306A\u3063\u305F\u306B\u3083\u3041\uFF01"
    - right: 1
      line: "\u3069\u3053\u3067\u898B\u3064\u3051\u3066\u304F\u308B\u3093\u3067\u3059\u304B"
    - right: 1
      line: "\u305D\u3093\u306A\u4E0D\u53EF\u601D\u8B70\u306A\u3082\u306E\uFF01"
    - right: 0
      line: "\u4F53\u304C\u7729\u3057\u304F\u3066"
    - right: 0
      line: "\u308F\u3051\u304C\u308F\u304B\u3089\u306B\u3083\u3044\u306B\u3083\uFF01"
    - right: 0
      line: "\u3069\u3046\u306B\u304B\u3057\u3066\u307B\u3057\u3044\u306B\u3083\u3042\uFF01"
  - scenarioLines:
    - right: 1
      line: "\u808C\u306B\u75DB\u307F\u3092\u611F\u3058\u307E\u3059\u304B?"
    - right: 0
      line: "\u808C\u306F\u75DB\u304F\u306A\u3044\u306B\u3083"
    - right: 0
      line: "\u3067\u3082\u808C\u306E\u8272\u304C\u3069\u3093\u3069\u3093"
    - right: 0
      line: "\u5909\u308F\u3063\u3066\u3044\u304F\u306B\u3083\uFF5E"
    - right: 1
      line: "1680\u4E07\u8272\u306B\u5149\u3063\u3066\u307E\u3059\u306D\u2026\u2026"
  - scenarioLines:
    - right: 1
      line: "\u4ED6\u306B\u4F55\u304B\u9055\u548C\u611F\u306F\uFF1F"
    - right: 0
      line: "\u4F53\u304C\u306A\u3093\u3060\u304B\u3050\u308B\u3050\u308B\u3059\u308B\u3057"
    - right: 0
      line: "\u76EE\u306F\u30C1\u30AB\u30C1\u30AB\u3059\u308B\u3057"
    - right: 0
      line: "\u6C17\u6301\u3061\u60AA\u3044\u306B\u3083\u3041"
    - right: 1
      line: "\u50D5\u3082\u76EE\u304C\u30C1\u30AB\u30C1\u30AB\u3057\u307E\u3059"
    - right: 1
      line: "\u4E00\u523B\u3082\u65E9\u304F\u6CBB\u3057\u307E\u3057\u3087\u3046"
  receiveSuccessedMedicineScenarios:
  - right: 0
    line: "\u6CBB\u3063\u305F\u306B\u3083\uFF01"
  - right: 1
    line: "\u6CBB\u308A\u307E\u3057\u305F\uFF01"
  - right: 1
    line: "\u3053\u308C\u3067\u307E\u3076\u3057\u304F\u306A\u3044\u3067\u3059\u306D"
  - right: 0
    line: "\u307E\u3060\u76EE\u304C\u3050\u308B\u3050\u308B\u3059\u308B\u306B\u3083"
  - right: 0
    line: "\u6B21\u306F\u76EE\u85AC\u304F\u3060\u3055\u3044\u306B\u3083\uFF01"
  receiveFailedMedicineScenarios:
  - right: 0
    line: "\u6CBB\u3063\u3066\u306B\u3083\u3044"
  - right: 1
    line: "\u6CBB\u3063\u3066\u306A\u3044\u3067\u3059\u306D\u2026\u2026"
  - right: 1
    line: "\u906E\u5149\u3067\u304D\u308B\u3082\u306E\u51FA\u3057\u307E\u3059\u2026\u2026"
  - right: 0
    line: "\u3042\u308A\u304C\u3068\u306B\u3083\u2026\u2026"
  - right: 1
    line: "(\u305D\u306E\u5F8C\u3001\u732B\u3055\u3093\u306F)"
  - right: 1
    line: "(\u4F53\u304C\u5149\u3089\u306A\u304F\u306A\u308B\u307E\u3067)"
  - right: 1
    line: "(\u7761\u7720\u4E0D\u8DB3\u306B\u306A\u308A\u307E\u3057\u305F)"
