%YAML 1.1
%TAG !u! tag:unity3d.com,2011:
--- !u!1 &4900544708142463888
GameObject:
  m_ObjectHideFlags: 0
  m_CorrespondingSourceObject: {fileID: 0}
  m_PrefabInstance: {fileID: 0}
  m_PrefabAsset: {fileID: 0}
  serializedVersion: 6
  m_Component:
  - component: {fileID: 4900544708142463889}
  m_Layer: 5
  m_Name: SelectSlot_001
  m_TagString: Untagged
  m_Icon: {fileID: 0}
  m_NavMeshLayer: 0
  m_StaticEditorFlags: 0
  m_IsActive: 1
--- !u!224 &4900544708142463889
RectTransform:
  m_ObjectHideFlags: 0
  m_CorrespondingSourceObject: {fileID: 0}
  m_PrefabInstance: {fileID: 0}
  m_PrefabAsset: {fileID: 0}
  m_GameObject: {fileID: 4900544708142463888}
  m_LocalRotation: {x: 0, y: 0, z: 0, w: 1}
  m_LocalPosition: {x: 0, y: 0, z: 0}
  m_LocalScale: {x: 1, y: 1, z: 1}
  m_ConstrainProportionsScale: 0
  m_Children:
  - {fileID: 8905264698296976559}
  m_Father: {fileID: 0}
  m_RootOrder: 0
  m_LocalEulerAnglesHint: {x: 0, y: 0, z: 0}
  m_AnchorMin: {x: 0.5, y: 0.5}
  m_AnchorMax: {x: 0.5, y: 0.5}
  m_AnchoredPosition: {x: 0, y: 0}
  m_SizeDelta: {x: 150, y: 150}
  m_Pivot: {x: 0.5, y: 0.5}
--- !u!1001 &4041349390467898366
PrefabInstance:
  m_ObjectHideFlags: 0
  serializedVersion: 2
  m_Modification:
    m_TransformParent: {fileID: 4900544708142463889}
    m_Modifications:
    - target: {fileID: 2018038441908239621, guid: 6fc044cfcc375394cb89c714eca95d2f, type: 3}
      propertyPath: m_Navigation.m_Mode
      value: 3
      objectReference: {fileID: 0}
    - target: {fileID: 4863917096683560784, guid: 6fc044cfcc375394cb89c714eca95d2f, type: 3}
      propertyPath: m_Name
      value: Item Disp
      objectReference: {fileID: 0}
    - target: {fileID: 4863917096683560785, guid: 6fc044cfcc375394cb89c714eca95d2f, type: 3}
      propertyPath: m_Pivot.x
      value: 0.5
      objectReference: {fileID: 0}
    - target: {fileID: 4863917096683560785, guid: 6fc044cfcc375394cb89c714eca95d2f, type: 3}
      propertyPath: m_Pivot.y
      value: 0.5
      objectReference: {fileID: 0}
    - target: {fileID: 4863917096683560785, guid: 6fc044cfcc375394cb89c714eca95d2f, type: 3}
      propertyPath: m_RootOrder
      value: 0
      objectReference: {fileID: 0}
    - target: {fileID: 4863917096683560785, guid: 6fc044cfcc375394cb89c714eca95d2f, type: 3}
      propertyPath: m_AnchorMax.x
      value: 0.5
      objectReference: {fileID: 0}
    - target: {fileID: 4863917096683560785, guid: 6fc044cfcc375394cb89c714eca95d2f, type: 3}
      propertyPath: m_AnchorMax.y
      value: 0.5
      objectReference: {fileID: 0}
    - target: {fileID: 4863917096683560785, guid: 6fc044cfcc375394cb89c714eca95d2f, type: 3}
      propertyPath: m_AnchorMin.x
      value: 0.5
      objectReference: {fileID: 0}
    - target: {fileID: 4863917096683560785, guid: 6fc044cfcc375394cb89c714eca95d2f, type: 3}
      propertyPath: m_AnchorMin.y
      value: 0.5
      objectReference: {fileID: 0}
    - target: {fileID: 4863917096683560785, guid: 6fc044cfcc375394cb89c714eca95d2f, type: 3}
      propertyPath: m_SizeDelta.x
      value: 150
      objectReference: {fileID: 0}
    - target: {fileID: 4863917096683560785, guid: 6fc044cfcc375394cb89c714eca95d2f, type: 3}
      propertyPath: m_SizeDelta.y
      value: 150
      objectReference: {fileID: 0}
    - target: {fileID: 4863917096683560785, guid: 6fc044cfcc375394cb89c714eca95d2f, type: 3}
      propertyPath: m_LocalPosition.x
      value: 0
      objectReference: {fileID: 0}
    - target: {fileID: 4863917096683560785, guid: 6fc044cfcc375394cb89c714eca95d2f, type: 3}
      propertyPath: m_LocalPosition.y
      value: 0
      objectReference: {fileID: 0}
    - target: {fileID: 4863917096683560785, guid: 6fc044cfcc375394cb89c714eca95d2f, type: 3}
      propertyPath: m_LocalPosition.z
      value: 0
      objectReference: {fileID: 0}
    - target: {fileID: 4863917096683560785, guid: 6fc044cfcc375394cb89c714eca95d2f, type: 3}
      propertyPath: m_LocalRotation.w
      value: 1
      objectReference: {fileID: 0}
    - target: {fileID: 4863917096683560785, guid: 6fc044cfcc375394cb89c714eca95d2f, type: 3}
      propertyPath: m_LocalRotation.x
      value: 0
      objectReference: {fileID: 0}
    - target: {fileID: 4863917096683560785, guid: 6fc044cfcc375394cb89c714eca95d2f, type: 3}
      propertyPath: m_LocalRotation.y
      value: 0
      objectReference: {fileID: 0}
    - target: {fileID: 4863917096683560785, guid: 6fc044cfcc375394cb89c714eca95d2f, type: 3}
      propertyPath: m_LocalRotation.z
      value: 0
      objectReference: {fileID: 0}
    - target: {fileID: 4863917096683560785, guid: 6fc044cfcc375394cb89c714eca95d2f, type: 3}
      propertyPath: m_AnchoredPosition.x
      value: 0
      objectReference: {fileID: 0}
    - target: {fileID: 4863917096683560785, guid: 6fc044cfcc375394cb89c714eca95d2f, type: 3}
      propertyPath: m_AnchoredPosition.y
      value: 0
      objectReference: {fileID: 0}
    - target: {fileID: 4863917096683560785, guid: 6fc044cfcc375394cb89c714eca95d2f, type: 3}
      propertyPath: m_LocalEulerAnglesHint.x
      value: 0
      objectReference: {fileID: 0}
    - target: {fileID: 4863917096683560785, guid: 6fc044cfcc375394cb89c714eca95d2f, type: 3}
      propertyPath: m_LocalEulerAnglesHint.y
      value: 0
      objectReference: {fileID: 0}
    - target: {fileID: 4863917096683560785, guid: 6fc044cfcc375394cb89c714eca95d2f, type: 3}
      propertyPath: m_LocalEulerAnglesHint.z
      value: 0
      objectReference: {fileID: 0}
    - target: {fileID: 9174000964237582117, guid: 6fc044cfcc375394cb89c714eca95d2f, type: 3}
      propertyPath: m_IsActive
      value: 1
      objectReference: {fileID: 0}
    m_RemovedComponents: []
  m_SourcePrefab: {fileID: 100100000, guid: 6fc044cfcc375394cb89c714eca95d2f, type: 3}
--- !u!224 &8905264698296976559 stripped
RectTransform:
  m_CorrespondingSourceObject: {fileID: 4863917096683560785, guid: 6fc044cfcc375394cb89c714eca95d2f, type: 3}
  m_PrefabInstance: {fileID: 4041349390467898366}
  m_PrefabAsset: {fileID: 0}
