%YAML 1.1
%TAG !u! tag:unity3d.com,2011:
--- !u!114 &11400000
MonoBehaviour:
  m_ObjectHideFlags: 0
  m_CorrespondingSourceObject: {fileID: 0}
  m_PrefabInstance: {fileID: 0}
  m_PrefabAsset: {fileID: 0}
  m_GameObject: {fileID: 0}
  m_Enabled: 1
  m_EditorHideFlags: 0
  m_Script: {fileID: 11500000, guid: 60d36017813e43e43a611f361ed963b2, type: 3}
  m_Name: Recipe 3
  m_EditorClassIdentifier: 
  m_ingredients:
  - {fileID: 11400000, guid: eac6ec477a173ea4e9b5c4f36169e037, type: 2}
  - {fileID: 11400000, guid: 9dc63d8a15f1fe34f96ffa44484a2154, type: 2}
  m_medicineType: 1
  m_result: {fileID: 11400000, guid: 6e263ec866aa1fd498f8a74ac5ad5067, type: 2}
