%YAML 1.1
%TAG !u! tag:unity3d.com,2011:
--- !u!114 &11400000
MonoBehaviour:
  m_ObjectHideFlags: 0
  m_CorrespondingSourceObject: {fileID: 0}
  m_PrefabInstance: {fileID: 0}
  m_PrefabAsset: {fileID: 0}
  m_GameObject: {fileID: 0}
  m_Enabled: 1
  m_EditorHideFlags: 0
  m_Script: {fileID: 11500000, guid: 60d36017813e43e43a611f361ed963b2, type: 3}
  m_Name: Recipe 10
  m_EditorClassIdentifier: 
  m_ingredients:
  - {fileID: 11400000, guid: 579684667b0743342aaa67f9b9dea836, type: 2}
  - {fileID: 11400000, guid: 8960ce08ae785c044902471d9f20a706, type: 2}
  m_medicineType: 4
  m_result: {fileID: 11400000, guid: b8cd7df6ea496b64cb1bc941f4331ec6, type: 2}
